<svg width="137" height="107" viewBox="0 0 137 107" fill="none" xmlns="http://www.w3.org/2000/svg">
   <circle opacity="0.3" cx="73.778" cy="38.7328" r="38.0326" fill="#EDE7F6"/>
   <path fill-rule="evenodd" clip-rule="evenodd" d="M73.3087 28.2608C73.9461 28.078 74.4126 27.4908 74.4126 26.7946C74.4126 25.9523 73.7298 25.2695 72.8876 25.2695C72.0453 25.2695 71.3625 25.9523 71.3625 26.7946C71.3625 27.4909 71.8291 28.0782 72.4667 28.2608L72.8878 28.0864L73.3087 28.2608ZM74.4868 28.7488C75.052 28.2857 75.4126 27.5823 75.4126 26.7946C75.4126 25.4 74.2821 24.2695 72.8876 24.2695C71.493 24.2695 70.3625 25.4 70.3625 26.7946C70.3625 27.5823 70.7232 28.2858 71.2885 28.7489L55.9922 35.0848C56.0643 34.3578 55.8219 33.6054 55.265 33.0485C54.2789 32.0624 52.6801 32.0624 51.694 33.0485C50.7079 34.0346 50.7079 35.6334 51.694 36.6195C52.2316 37.157 52.9511 37.4015 53.6543 37.353L47.3449 52.5853C46.8819 52.0535 46.2 51.7173 45.4395 51.7173C44.0449 51.7173 42.9144 52.8478 42.9144 54.2423C42.9144 55.6369 44.0449 56.7674 45.4395 56.7674C46.1619 56.7674 46.8134 56.4641 47.2736 55.9778L53.549 71.1279C52.8795 71.1093 52.204 71.3555 51.693 71.8665C50.7069 72.8526 50.7069 74.4514 51.693 75.4375C52.6791 76.4236 54.2779 76.4236 55.264 75.4375C55.7563 74.9452 56.0028 74.3002 56.0035 73.655L71.0993 79.9079C70.644 80.3646 70.3625 80.9947 70.3625 81.6906C70.3625 83.0851 71.493 84.2156 72.8876 84.2156C74.2821 84.2156 75.4126 83.0851 75.4126 81.6906C75.4126 80.9948 75.1312 80.3647 74.6759 79.908L89.7716 73.6551C89.7723 74.3004 90.0188 74.9455 90.5112 75.4378C91.4973 76.4239 93.096 76.4239 94.0821 75.4378C95.0682 74.4517 95.0682 72.853 94.0821 71.8669C93.5712 71.3559 92.8958 71.1097 92.2263 71.1283L98.5016 55.9785C98.9619 56.4652 99.6137 56.7689 100.336 56.7689C101.731 56.7689 102.862 55.6384 102.862 54.2438C102.862 52.8493 101.731 51.7188 100.336 51.7188C99.576 51.7188 98.8941 52.0549 98.4312 52.5867L92.1209 37.3521C92.8244 37.401 93.5445 37.1565 94.0823 36.6187C95.0684 35.6326 95.0684 34.0338 94.0823 33.0477C93.0962 32.0616 91.4974 32.0616 90.5113 33.0477C89.9541 33.6049 89.7118 34.3578 89.7843 35.0852L74.4868 28.7488ZM72.571 29.3C72.6747 29.313 72.7804 29.3197 72.8876 29.3197C72.9949 29.3197 73.1006 29.313 73.2044 29.3L90.3024 36.3822C90.3663 36.4642 90.4359 36.5432 90.5113 36.6187C90.6187 36.726 90.7332 36.8216 90.8535 36.9056L97.7757 53.6172H94.1499C93.8937 52.7944 93.228 52.1522 92.3913 51.9289C91.9404 47.6522 90.1476 43.7755 87.4417 40.7277L90.9458 37.2236L90.2387 36.5165L86.7591 39.9961C83.2769 36.4447 78.4864 34.1808 73.1677 33.9846V29.5703H72.1677V33.9722C67.0406 34.0338 62.3757 36.016 58.859 39.2328L55.8252 36.2363L72.571 29.3ZM54.9212 36.9075L48.0002 53.6162H52.3297L52.3306 53.5744C52.3268 53.5175 52.3249 53.4604 52.3249 53.4031C52.3249 53.283 52.3334 53.1636 52.3501 53.045C52.6042 47.9372 54.7661 43.3316 58.1378 39.9261L55.0134 36.8401C54.9831 36.8634 54.9523 36.8858 54.9212 36.9075ZM47.8902 54.8531L54.7805 71.4879C54.8192 71.5112 54.8573 71.5356 54.895 71.5611L58.2001 68.256C54.6917 64.7434 52.4772 59.9381 52.3325 54.6162H47.9371C47.9251 54.6965 47.9095 54.7755 47.8902 54.8531ZM55.6976 72.4458L72.17 79.2689C72.3802 79.2068 72.6018 79.1712 72.8309 79.1661L72.2192 79.1662V74.1478C67.1035 74.0993 62.4451 72.1386 58.9242 68.9461L55.5955 72.2748C55.632 72.3307 55.666 72.3878 55.6976 72.4458ZM73.6054 79.269L90.0777 72.446C90.1259 72.3573 90.1798 72.271 90.2395 72.1874L86.4672 68.4151C83.023 71.7872 78.3703 73.9299 73.2192 74.1329V79.1661H72.9442C73.1734 79.1712 73.3951 79.2068 73.6054 79.269ZM90.995 71.488L97.8854 54.853C97.8662 54.7757 97.8507 54.6971 97.8388 54.6172H94.2516C94.1457 55.7022 93.353 56.586 92.3138 56.8281C91.7394 60.9955 89.8867 64.7549 87.1642 67.698L90.9697 71.5034C90.9781 71.4982 90.9865 71.4931 90.995 71.488ZM91.6497 36.2146L91.4713 35.784L90.963 35.5735C90.6407 34.9933 90.7258 34.2474 91.2184 33.7548C91.814 33.1592 92.7796 33.1592 93.3752 33.7548C93.9708 34.3504 93.9708 35.316 93.3752 35.9116C92.9085 36.3782 92.2147 36.4792 91.6497 36.2146ZM98.9535 54.8875L99.1689 54.3675L98.9023 53.724C99.1149 53.1377 99.6767 52.7188 100.336 52.7188C101.179 52.7188 101.862 53.4015 101.862 54.2438C101.862 55.0861 101.179 55.7689 100.336 55.7689C99.7242 55.7689 99.1962 55.4081 98.9535 54.8875ZM90.8355 73.2144L91.4713 72.9511L91.7745 72.2191C92.3141 72.0229 92.9423 72.1412 93.375 72.574C93.9706 73.1695 93.9706 74.1352 93.375 74.7307C92.7795 75.3263 91.8138 75.3263 91.2183 74.7307C90.8078 74.3203 90.6803 73.7341 90.8355 73.2144ZM72.1629 80.3484L72.8878 80.6486L73.6124 80.3485C74.089 80.6064 74.4126 81.1107 74.4126 81.6906C74.4126 82.5329 73.7298 83.2156 72.8876 83.2156C72.0453 83.2156 71.3625 82.5329 71.3625 81.6906C71.3625 81.1106 71.6862 80.6063 72.1629 80.3484ZM54.0009 72.2189L54.3042 72.9511L54.9397 73.2143C55.0948 73.734 54.9672 74.32 54.5568 74.7304C53.9613 75.326 52.9957 75.326 52.4001 74.7304C51.8045 74.1348 51.8045 73.1692 52.4001 72.5737C52.8329 72.1408 53.4612 72.0225 54.0009 72.2189ZM46.8737 53.7227L46.6066 54.3675L46.8219 54.8872C46.5789 55.4072 46.0513 55.7674 45.4395 55.7674C44.5972 55.7674 43.9144 55.0846 43.9144 54.2423C43.9144 53.4001 44.5972 52.7173 45.4395 52.7173C46.0993 52.7173 46.6612 53.1363 46.8737 53.7227ZM54.8141 35.5728L54.3042 35.784L54.1252 36.2161C53.5605 36.4799 52.8674 36.3786 52.4011 35.9124C51.8056 35.3168 51.8056 34.3512 52.4011 33.7556C52.9967 33.16 53.9623 33.16 54.5579 33.7556C55.0501 34.2478 55.1355 34.9928 54.8141 35.5728ZM84.6433 59.0282C84.0406 62.3817 82.8447 65.3587 81.2504 67.7023C79.4665 70.3246 77.226 72.1044 74.7868 72.8095C76.6449 70.6269 78.0969 65.9562 78.7026 60.1385C80.8691 59.8867 82.8728 59.5083 84.6433 59.0282ZM63.5775 67.7023C65.3613 70.3245 67.6018 72.1043 70.0409 72.8094C68.366 70.8419 67.0211 66.8526 66.3285 61.8237C65.2625 61.6948 64.4011 60.9016 64.1706 59.8703C62.7459 59.6438 61.4094 59.3603 60.1846 59.0282C60.7873 62.3817 61.9832 65.3587 63.5775 67.7023ZM68.6999 67.9528C68.124 66.1989 67.6537 64.0949 67.3273 61.746C68.035 61.5446 68.616 61.0423 68.9231 60.3861C70.0569 60.4562 71.2233 60.4928 72.4139 60.4928C74.2381 60.4928 76.0055 60.407 77.6855 60.2461C77.3655 63.2025 76.8238 65.8333 76.1279 67.9528C75.5499 69.7132 74.8834 71.0654 74.1915 71.9568C73.4894 72.8612 72.8803 73.1487 72.4139 73.1487C71.9475 73.1487 71.3384 72.8612 70.6363 71.9568C69.9444 71.0654 69.2779 69.7132 68.6999 67.9528ZM72.4139 59.4928C71.3033 59.4928 70.2159 59.4604 69.1586 59.3985C69.1595 59.3714 69.1599 59.3443 69.1599 59.3171C69.1599 58.0052 68.1595 56.9269 66.8799 56.8037C66.839 55.9081 66.8178 54.992 66.8178 54.0597C66.8178 51.7757 66.945 49.5892 67.177 47.5614C68.84 47.4002 70.5959 47.3135 72.4139 47.3135C73.3718 47.3135 74.3124 47.3375 75.2313 47.3839C75.2446 48.767 76.3699 49.8841 77.7562 49.8841C77.7925 49.8841 77.8287 49.8833 77.8647 49.8818C77.9597 51.2257 78.0099 52.6234 78.0099 54.0597C78.0099 55.8537 77.9315 57.5876 77.7854 59.2316C76.0827 59.4013 74.281 59.4928 72.4139 59.4928ZM65.8178 54.0597C65.8178 55.0258 65.8402 55.976 65.8835 56.9057C64.9992 57.1809 64.3234 57.9292 64.1521 58.8544C62.6553 58.6101 61.2657 58.3022 60.0121 57.9418C59.8392 56.6901 59.748 55.3919 59.748 54.0597C59.748 52.7756 59.8327 51.5232 59.9937 50.3134C60.4279 50.6663 60.9817 50.8778 61.5848 50.8778C62.9794 50.8778 64.1099 49.7472 64.1099 48.3527C64.1099 48.2204 64.0997 48.0904 64.0801 47.9636C64.752 47.8528 65.4456 47.7548 66.1584 47.6707C65.9375 49.6777 65.8178 51.8261 65.8178 54.0597ZM59.072 48.1028C59.1258 47.5548 59.3549 47.0582 59.7023 46.6698C60.9844 41.9083 63.4687 38.0389 66.6049 35.8707C59.8664 38.0209 54.7539 43.8119 53.5801 50.9309C54.7364 49.8342 56.6398 48.8658 59.072 48.1028ZM61.5848 45.8276C62.4857 45.8276 63.2764 46.2994 63.7233 47.0094C64.5463 46.8698 65.4005 46.7494 66.281 46.6499C66.9584 41.4543 68.3269 37.3234 70.0409 35.3099C67.6018 36.015 65.3613 37.7948 63.5775 40.417C62.5093 41.9873 61.62 43.8419 60.968 45.9035C61.1654 45.854 61.3721 45.8276 61.5848 45.8276ZM75.4228 46.3925C74.4413 46.3404 73.4365 46.3135 72.4139 46.3135C70.6481 46.3135 68.9354 46.3939 67.3038 46.5449C67.6309 44.1268 68.11 41.963 68.6999 40.1665C69.2779 38.4061 69.9444 37.0539 70.6363 36.1625C71.331 35.2677 71.9347 34.9767 72.3992 34.9707L72.4139 34.9707L72.4286 34.9707C72.8931 34.9767 73.4968 35.2677 74.1915 36.1625C74.8834 37.0539 75.5499 38.4061 76.1279 40.1665C76.5789 41.5401 76.9652 43.1285 77.2683 44.8811C76.431 45.045 75.742 45.6227 75.4228 46.3925ZM78.2842 44.8893C77.5478 40.5259 76.3024 37.0902 74.7868 35.3098C77.226 36.015 79.4665 37.7948 81.2504 40.417C82.6208 42.4315 83.6968 44.914 84.3548 47.7013C83.0873 47.3701 81.7055 47.0904 80.2341 46.8707C80.0402 45.8811 79.2682 45.0986 78.2842 44.8893ZM78.8495 49.6358C79.5454 49.301 80.0643 48.6565 80.2273 47.881C81.8048 48.1217 83.2696 48.4323 84.5894 48.8003C84.9082 50.468 85.0799 52.2318 85.0799 54.0597C85.0799 55.3919 84.9887 56.6901 84.8158 57.9418C83.0525 58.4487 81.0201 58.8519 78.7989 59.1201C78.9366 57.5034 79.0099 55.8076 79.0099 54.0597C79.0099 52.5397 78.9545 51.0592 78.8495 49.6358ZM86.4566 66.9903C88.993 64.2372 90.7301 60.7363 91.2996 56.8558C90.9904 56.8016 90.7006 56.6912 90.441 56.5354C89.2768 57.3683 87.6626 58.1089 85.7106 58.7176C84.7412 64.7199 81.9398 69.6793 78.2226 72.2489C81.0885 71.3345 83.6602 69.7615 85.76 67.708L85.6931 67.6411L86.4003 66.934L86.4566 66.9903ZM90.8821 51.9927C89.9091 52.3435 89.2136 53.2749 89.2136 54.3688C89.2136 54.9185 89.3892 55.4272 89.6874 55.8417C88.8299 56.4238 87.6873 56.9788 86.2862 57.4733C86.1484 57.5219 86.0084 57.5698 85.8662 57.6171C86.0066 56.4624 86.0799 55.2736 86.0799 54.0597C86.0799 52.3563 85.9356 50.7024 85.6642 49.123C85.8761 49.1914 86.0835 49.2614 86.2862 49.333C88.0422 49.9527 89.3921 50.6674 90.2836 51.4113C90.5222 51.6104 90.7201 51.8045 90.8821 51.9927ZM66.6053 72.2489C59.3998 69.9498 54.0533 63.4878 53.3936 55.6907C54.5323 56.8703 56.5274 57.91 59.1173 58.7176C60.0867 64.7199 62.8881 69.6793 66.6053 72.2489ZM59.1637 49.123C58.8922 50.7024 58.748 52.3563 58.748 54.0597C58.748 55.2736 58.8213 56.4624 58.9616 57.6171C58.8195 57.5698 58.6795 57.5219 58.5416 57.4733C56.7857 56.8536 55.4358 56.1388 54.5443 55.3949C53.7214 54.7083 53.3822 54.0813 53.3317 53.546C53.3352 53.4132 53.3401 53.2807 53.3463 53.1486C53.4312 52.6384 53.778 52.0507 54.5443 51.4113C55.4358 50.6674 56.7857 49.9527 58.5416 49.333C58.7444 49.2614 58.9518 49.1914 59.1637 49.123ZM78.223 35.8707C81.6483 38.2387 84.2959 42.6359 85.449 48.0084C88.0281 48.7853 90.0433 49.7885 91.2478 50.9309C90.074 43.8119 84.9614 38.0209 78.223 35.8707Z" fill="#673AB7"/>
   <g opacity="0.6">
      <circle cx="35.744" cy="7.13788" r="3.30512" fill="#4527A0"/>
      <circle cx="35.744" cy="7.13788" r="3.30512" fill="url(#paint0_linear_5255_56485)" fill-opacity="0.2"/>
   </g>
   <g opacity="0.3">
      <circle cx="77.0831" cy="102.995" r="3.30512" fill="#4527A0"/>
      <circle cx="77.0831" cy="102.995" r="3.30512" fill="url(#paint1_linear_5255_56485)" fill-opacity="0.2"/>
   </g>
   <g opacity="0.2">
      <path d="M28.8203 55.2311C28.8203 56.4031 27.8702 57.3533 26.6981 57.3533C25.5261 57.3533 24.5759 56.4031 24.5759 55.2311C24.5759 54.059 25.5261 53.1089 26.6981 53.1089C27.8702 53.1089 28.8203 54.059 28.8203 55.2311Z" fill="#4527A0"/>
      <path d="M28.8203 55.2311C28.8203 56.4031 27.8702 57.3533 26.6981 57.3533C25.5261 57.3533 24.5759 56.4031 24.5759 55.2311C24.5759 54.059 25.5261 53.1089 26.6981 53.1089C27.8702 53.1089 28.8203 54.059 28.8203 55.2311Z" fill="url(#paint2_linear_5255_56485)" fill-opacity="0.2"/>
   </g>
   <g opacity="0.7">
      <circle cx="96.2846" cy="8.32068" r="2.1222" fill="#4527A0"/>
      <circle cx="96.2846" cy="8.32068" r="2.1222" fill="url(#paint3_linear_5255_56485)" fill-opacity="0.2"/>
   </g>
   <circle cx="14.829" cy="85.1766" r="2.1222" fill="#4527A0"/>
   <circle cx="14.829" cy="85.1766" r="2.1222" fill="url(#paint4_linear_5255_56485)" fill-opacity="0.2"/>
   <circle cx="134.091" cy="61.5084" r="2.1222" fill="#4527A0"/>
   <circle cx="134.091" cy="61.5084" r="2.1222" fill="url(#paint5_linear_5255_56485)" fill-opacity="0.2"/>
   <g opacity="0.3">
      <circle cx="49.9136" cy="49.6637" r="0.742298" fill="#4527A0"/>
      <circle cx="49.9136" cy="49.6637" r="0.742298" fill="url(#paint6_linear_5255_56485)" fill-opacity="0.2"/>
   </g>
   <circle cx="1.19054" cy="32.5001" r="0.742298" fill="#4527A0"/>
   <circle cx="1.19054" cy="32.5001" r="0.742298" fill="url(#paint7_linear_5255_56485)" fill-opacity="0.2"/>
   <g opacity="0.7">
      <circle cx="124.573" cy="28.6593" r="0.742298" fill="#4527A0"/>
      <circle cx="124.573" cy="28.6593" r="0.742298" fill="url(#paint8_linear_5255_56485)" fill-opacity="0.2"/>
   </g>
   <g opacity="0.2">
      <circle cx="61.3289" cy="17.3494" r="1.48438" fill="#4527A0"/>
      <circle cx="61.3289" cy="17.3494" r="1.48438" fill="url(#paint9_linear_5255_56485)" fill-opacity="0.2"/>
   </g>
   <circle cx="107.203" cy="82.3121" r="0.742298" fill="#4527A0"/>
   <circle cx="107.203" cy="82.3121" r="0.742298" fill="url(#paint10_linear_5255_56485)" fill-opacity="0.2"/>
   <defs>
      <linearGradient id="paint0_linear_5255_56485" x1="35.2185" y1="6.30788" x2="37.3649" y2="8.83767" gradientUnits="userSpaceOnUse">
         <stop stop-color="#FFFAFA"/>
         <stop offset="1" stop-color="white" stop-opacity="0"/>
      </linearGradient>
      <linearGradient id="paint1_linear_5255_56485" x1="76.5576" y1="102.165" x2="78.7041" y2="104.695" gradientUnits="userSpaceOnUse">
         <stop stop-color="#FFFAFA"/>
         <stop offset="1" stop-color="white" stop-opacity="0"/>
      </linearGradient>
      <linearGradient id="paint2_linear_5255_56485" x1="9.6461" y1="54.6981" x2="11.0243" y2="56.3225" gradientUnits="userSpaceOnUse">
         <stop stop-color="#FFFAFA"/>
         <stop offset="1" stop-color="white" stop-opacity="0"/>
      </linearGradient>
      <linearGradient id="paint3_linear_5255_56485" x1="95.9471" y1="7.78774" x2="97.3254" y2="9.41211" gradientUnits="userSpaceOnUse">
         <stop stop-color="#FFFAFA"/>
         <stop offset="1" stop-color="white" stop-opacity="0"/>
      </linearGradient>
      <linearGradient id="paint4_linear_5255_56485" x1="14.4916" y1="84.6437" x2="15.8698" y2="86.2681" gradientUnits="userSpaceOnUse">
         <stop stop-color="#FFFAFA"/>
         <stop offset="1" stop-color="white" stop-opacity="0"/>
      </linearGradient>
      <linearGradient id="paint5_linear_5255_56485" x1="133.754" y1="60.9755" x2="135.132" y2="62.5999" gradientUnits="userSpaceOnUse">
         <stop stop-color="#FFFAFA"/>
         <stop offset="1" stop-color="white" stop-opacity="0"/>
      </linearGradient>
      <linearGradient id="paint6_linear_5255_56485" x1="49.7955" y1="49.4773" x2="50.2776" y2="50.0454" gradientUnits="userSpaceOnUse">
         <stop stop-color="#FFFAFA"/>
         <stop offset="1" stop-color="white" stop-opacity="0"/>
      </linearGradient>
      <linearGradient id="paint7_linear_5255_56485" x1="1.07252" y1="32.3137" x2="1.5546" y2="32.8819" gradientUnits="userSpaceOnUse">
         <stop stop-color="#FFFAFA"/>
         <stop offset="1" stop-color="white" stop-opacity="0"/>
      </linearGradient>
      <linearGradient id="paint8_linear_5255_56485" x1="124.455" y1="28.4729" x2="124.937" y2="29.041" gradientUnits="userSpaceOnUse">
         <stop stop-color="#FFFAFA"/>
         <stop offset="1" stop-color="white" stop-opacity="0"/>
      </linearGradient>
      <linearGradient id="paint9_linear_5255_56485" x1="61.0928" y1="16.9766" x2="62.0569" y2="18.1128" gradientUnits="userSpaceOnUse">
         <stop stop-color="#FFFAFA"/>
         <stop offset="1" stop-color="white" stop-opacity="0"/>
      </linearGradient>
      <linearGradient id="paint10_linear_5255_56485" x1="107.085" y1="82.1257" x2="107.567" y2="82.6939" gradientUnits="userSpaceOnUse">
         <stop stop-color="#FFFAFA"/>
         <stop offset="1" stop-color="white" stop-opacity="0"/>
      </linearGradient>
   </defs>
</svg>